Test case driver begins here:
Running Suite: Graph Suite
==========================
Random Seed: 1620435128
Will run 1 of 1 specs

Begin test with following criteria
Vertices: 125, Edges: 2, Partitions: 15, maxRand: 36, minRand: 8
3
3
5
5
3
2
3
3
4
3
3
4
4
4
3
2
4
5
4
3
3
6
4
4
2
145
148
160
132
149
93
146
112
131
114
139
130
124
160
129
114
135
175
152
115
121
180
154
144
90
+
Ran 1 of 1 Specs in 0.105 seconds
SUCCESS! -- 1 Passed | 0 Failed | 0 Pending | 0 Skipped
