Test case driver begins here:
Running Suite: Graph Suite
==========================
Random Seed: 1620446932
Will run 1 of 1 specs

Begin test with following criteria
Vertices: 500, Edges: 200, Partitions: 2, maxRand: 36, minRand: 8
1316
1256
1260
1411
1462
1385
1428
1278
1339
1405
1317
1332
1371
1340
1303
1334
1312
1258
1355
1336
1326
1342
1343
1317
1322
--------
5457
5422
5330
5301
5378
5421
5434
5336
5526
5573
5326
5278
5376
5368
5314
5421
5311
5345
5402
5644
5388
5480
5535
5421
5387
+ [SLOW TEST:33.677 seconds]
Edmonds-Karp
c:/Users/jakea/Documents/GMU/GMU4/spring_2021/CS684/semester_project/maxflow/test1.go:13
  graphs!
  c:/Users/jakea/Documents/GMU/GMU4/spring_2021/CS684/semester_project/maxflow/test1.go:19
    stuff
    c:/Users/jakea/Documents/GMU/GMU4/spring_2021/CS684/semester_project/maxflow/test1.go:20
      should build and print!
      c:/Users/jakea/Documents/GMU/GMU4/spring_2021/CS684/semester_project/maxflow/test1.go:71
------------------------------

Ran 1 of 1 Specs in 33.678 seconds
SUCCESS! -- 1 Passed | 0 Failed | 0 Pending | 0 Skipped
